# Blender MTL File: 'baykar_cezeri_urdf.blend'
# Material Count: 1

newmtl cezeri_base.002
Ns 900.000000
Ka 1.000000 1.000000 1.000000
Kd 0.013149 0.016235 0.024514
Ks 0.500000 0.500000 0.500000
Ke 0.000000 0.000000 0.000000
Ni 1.450000
d 1.000000
illum 2
